01_projeto/03_HCSR04/01_FSM/simulation/qsim/fsm_u_som.msim.vcd
$comment
	File created using the following command:
		vcd file fsm_u_som.msim.vcd -direction
$end
$date
	Mon Apr 24 22:24:28 2017
$end
$version
	ModelSim Version 10.5b
$end
$timescale
	1ps
$end

$scope module fsm_u_som_vhd_vec_tst $end
$var wire 1 ! CLOCK $end
$var wire 1 " E_SINAL_DELAY $end
$var wire 1 # E_SINAL_ECHO $end
$var wire 1 $ E_SINAL_TRIG $end
$var wire 1 % RST $end
$var wire 1 & S_EN_DELAY $end
$var wire 1 ' S_EN_TRIG $end
$var wire 1 ( S_RST_ECHO $end

$scope module i1 $end
$var wire 1 ) gnd $end
$var wire 1 * vcc $end
$var wire 1 + unknown $end
$var wire 1 , devoe $end
$var wire 1 - devclrn $end
$var wire 1 . devpor $end
$var wire 1 / ww_devoe $end
$var wire 1 0 ww_devclrn $end
$var wire 1 1 ww_devpor $end
$var wire 1 2 ww_CLOCK $end
$var wire 1 3 ww_RST $end
$var wire 1 4 ww_E_SINAL_ECHO $end
$var wire 1 5 ww_E_SINAL_TRIG $end
$var wire 1 6 ww_E_SINAL_DELAY $end
$var wire 1 7 ww_S_EN_TRIG $end
$var wire 1 8 ww_S_RST_ECHO $end
$var wire 1 9 ww_S_EN_DELAY $end
$var wire 1 : \RST~inputclkctrl_INCLK_bus\ [3] $end
$var wire 1 ; \RST~inputclkctrl_INCLK_bus\ [2] $end
$var wire 1 < \RST~inputclkctrl_INCLK_bus\ [1] $end
$var wire 1 = \RST~inputclkctrl_INCLK_bus\ [0] $end
$var wire 1 > \CLOCK~inputclkctrl_INCLK_bus\ [3] $end
$var wire 1 ? \CLOCK~inputclkctrl_INCLK_bus\ [2] $end
$var wire 1 @ \CLOCK~inputclkctrl_INCLK_bus\ [1] $end
$var wire 1 A \CLOCK~inputclkctrl_INCLK_bus\ [0] $end
$var wire 1 B \S_EN_TRIG~output_o\ $end
$var wire 1 C \S_RST_ECHO~output_o\ $end
$var wire 1 D \S_EN_DELAY~output_o\ $end
$var wire 1 E \CLOCK~input_o\ $end
$var wire 1 F \CLOCK~inputclkctrl_outclk\ $end
$var wire 1 G \E_SINAL_TRIG~input_o\ $end
$var wire 1 H \E_SINAL_DELAY~input_o\ $end
$var wire 1 I \E_SINAL_ECHO~input_o\ $end
$var wire 1 J \Selector5~0_combout\ $end
$var wire 1 K \RST~input_o\ $end
$var wire 1 L \RST~inputclkctrl_outclk\ $end
$var wire 1 M \pr_state.gera_trig~q\ $end
$var wire 1 N \Selector6~0_combout\ $end
$var wire 1 O \pr_state.espera_echo~feeder_combout\ $end
$var wire 1 P \pr_state.espera_echo~q\ $end
$var wire 1 Q \Selector7~0_combout\ $end
$var wire 1 R \pr_state.mede_echo~feeder_combout\ $end
$var wire 1 S \pr_state.mede_echo~q\ $end
$var wire 1 T \Selector8~0_combout\ $end
$var wire 1 U \pr_state.inicia_delay~q\ $end
$var wire 1 V \Selector9~0_combout\ $end
$var wire 1 W \pr_state.delay~feeder_combout\ $end
$var wire 1 X \pr_state.delay~q\ $end
$var wire 1 Y \Selector3~0_combout\ $end
$var wire 1 Z \pr_state.inicio~q\ $end
$var wire 1 [ \Selector4~0_combout\ $end
$var wire 1 \ \pr_state.inicia_trig~q\ $end
$var wire 1 ] \WideOr0~0_combout\ $end
$var wire 1 ^ \S_EN_TRIG$latch~combout\ $end
$var wire 1 _ \WideOr1~0_combout\ $end
$var wire 1 ` \S_RST_ECHO$latch~combout\ $end
$var wire 1 a \WideOr2~0_combout\ $end
$var wire 1 b \S_EN_DELAY$latch~combout\ $end
$upscope $end
$upscope $end
$enddefinitions $end
#0
$dumpvars
0!
0"
0#
0$
1%
0&
0'
0(
0)
1*
x+
1,
1-
1.
1/
10
11
02
13
04
05
06
07
08
09
0B
0C
0D
xE
xF
xG
xH
xI
xJ
xK
xL
0M
xN
xO
0P
xQ
xR
0S
xT
0U
xV
xW
0X
xY
0Z
x[
0\
x]
x^
x_
x`
xa
xb
1>
1?
1@
xA
1:
1;
1<
x=
$end
#496
1Y
#514
1]
#515
1a
1_
#720
1K
1=
#746
0I
#776
0G
0H
#836
0E
0A
#841
1[
#907
1L
#1009
0F
#1115
0`
#1131
0b
#1141
0^
#1832
0Q
#2511
0T
#2853
0N
#2890
0V
#3086
0J
#3290
0R
#3430
xD
x9
x&
#3623
xB
x7
x'
#3813
xC
x8
x(
#4504
0D
09
0&
#4708
0B
07
0'
#4794
0O
#4859
0C
08
0(
#4932
0W
#10000
1!
12
#10730
1E
1A
#10917
1F
#12257
1Z
#12673
0a
0_
0]
#13009
0[
#13341
1\
#14008
1]
#14369
1^
#15779
1[
#17992
1B
17
1'
#20000
0!
1$
02
15
#20670
1G
#20836
0E
0A
#21009
0F
#23847
1J
#23859
0[
#30000
1!
12
#30730
1E
1A
#30917
1F
#33341
0\
1M
#34091
0]
#40000
0!
0$
1#
02
05
14
#40640
1I
#40776
0G
#40836
0E
0A
#41009
0F
#44212
0J
#44241
1N
#46264
1O
#50000
1!
12
#50730
1E
1A
#50917
1F
#53341
1P
0M
#53770
0N
#53923
1_
#54284
1`
#55166
1Q
#55711
0O
#56667
1R
#58097
1C
18
1(
#60000
0!
1$
02
15
#60670
1G
#60836
0E
0A
#61009
0F
#70000
1!
12
#70730
1E
1A
#70917
1F
#72257
1S
#73341
0P
#74456
0`
#78200
0C
08
0(
#80000
0!
0$
0#
02
05
04
#80746
0I
#80776
0G
#80836
0E
0A
#81009
0F
#84061
0Q
#84065
1T
#85519
0R
#90000
1!
12
#90730
1E
1A
#90917
1F
#92257
0S
#93019
0_
#93203
0T
#93341
1U
#93901
1a
#94467
1b
#95851
1T
#97897
1D
19
1&
#100000
0!
1$
02
15
#100670
1G
#100836
0E
0A
#101009
0F
#110000
1!
12
#110730
1E
1A
#110917
1F
#120000
0!
0$
1#
02
05
14
#120640
1I
#120776
0G
#120836
0E
0A
#121009
0F
#130000
1!
12
#130730
1E
1A
#130917
1F
#140000
0!
1$
02
15
#140670
1G
#140836
0E
0A
#141009
0F
#150000
1!
12
#150730
1E
1A
#150917
1F
#160000
0!
0$
0#
02
05
04
#160746
0I
#160776
0G
#160836
0E
0A
#161009
0F
#170000
1!
12
#170730
1E
1A
#170917
1F
#180000
0!
1$
02
15
#180670
1G
#180836
0E
0A
#181009
0F
#190000
1!
12
#190730
1E
1A
#190917
1F
#200000
0!
0$
1#
02
05
14
#200640
1I
#200776
0G
#200836
0E
0A
#201009
0F
#210000
1!
12
#210730
1E
1A
#210917
1F
#220000
0!
1$
02
15
#220670
1G
#220836
0E
0A
#221009
0F
#230000
1!
12
#230730
1E
1A
#230917
1F
#240000
0!
0$
0#
02
05
04
#240746
0I
#240776
0G
#240836
0E
0A
#241009
0F
#250000
1!
12
#250730
1E
1A
#250917
1F
#260000
0!
1$
02
15
#260670
1G
#260836
0E
0A
#261009
0F
#270000
1!
12
#270730
1E
1A
#270917
1F
#280000
0!
0$
1#
02
05
14
#280640
1I
#280776
0G
#280836
0E
0A
#281009
0F
#290000
1!
12
#290730
1E
1A
#290917
1F
#300000
0!
1$
02
15
#300670
1G
#300836
0E
0A
#301009
0F
#310000
1!
12
#310730
1E
1A
#310917
1F
#320000
0!
0$
0#
02
05
04
#320746
0I
#320776
0G
#320836
0E
0A
#321009
0F
#330000
1!
12
#330730
1E
1A
#330917
1F
#340000
0!
1$
02
15
#340670
1G
#340836
0E
0A
#341009
0F
#350000
1!
12
#350730
1E
1A
#350917
1F
#360000
0!
0$
1#
02
05
14
#360640
1I
#360776
0G
#360836
0E
0A
#361009
0F
#370000
1!
12
#370730
1E
1A
#370917
1F
#380000
0!
1$
02
15
#380670
1G
#380836
0E
0A
#381009
0F
#390000
1!
12
#390730
1E
1A
#390917
1F
#400000
0!
0$
0#
02
05
04
#400746
0I
#400776
0G
#400836
0E
0A
#401009
0F
#410000
1!
12
#410730
1E
1A
#410917
1F
#420000
0!
1$
02
15
#420670
1G
#420836
0E
0A
#421009
0F
#430000
1!
12
#430730
1E
1A
#430917
1F
#440000
0!
0$
1#
02
05
14
#440640
1I
#440776
0G
#440836
0E
0A
#441009
0F
#450000
1!
12
#450730
1E
1A
#450917
1F
#460000
0!
1$
02
15
#460670
1G
#460836
0E
0A
#461009
0F
#470000
1!
12
#470730
1E
1A
#470917
1F
#480000
0!
0$
0#
02
05
04
#480746
0I
#480776
0G
#480836
0E
0A
#481009
0F
#490000
1!
12
#490730
1E
1A
#490917
1F
#500000
0!
1$
02
15
#500670
1G
#500836
0E
0A
#501009
0F
#510000
1!
12
#510730
1E
1A
#510917
1F
#520000
0!
0$
1#
02
05
14
#520640
1I
#520776
0G
#520836
0E
0A
#521009
0F
#530000
1!
12
#530730
1E
1A
#530917
1F
#540000
0!
1$
02
15
#540670
1G
#540836
0E
0A
#541009
0F
#550000
1!
12
#550730
1E
1A
#550917
1F
#560000
0!
0$
0#
02
05
04
#560746
0I
#560776
0G
#560836
0E
0A
#561009
0F
#570000
1!
12
#570730
1E
1A
#570917
1F
#580000
0!
1$
02
15
#580670
1G
#580836
0E
0A
#581009
0F
#590000
1!
12
#590730
1E
1A
#590917
1F
#600000
0!
0$
1#
02
05
14
#600640
1I
#600776
0G
#600836
0E
0A
#601009
0F
#610000
1!
12
#610730
1E
1A
#610917
1F
#620000
0!
1$
02
15
#620670
1G
#620836
0E
0A
#621009
0F
#630000
1!
12
#630730
1E
1A
#630917
1F
#640000
0!
0$
0#
02
05
04
#640746
0I
#640776
0G
#640836
0E
0A
#641009
0F
#650000
1!
12
#650730
1E
1A
#650917
1F
#660000
0!
1$
02
15
#660670
1G
#660836
0E
0A
#661009
0F
#670000
1!
12
#670730
1E
1A
#670917
1F
#680000
0!
0$
1#
02
05
14
#680640
1I
#680776
0G
#680836
0E
0A
#681009
0F
#690000
1!
12
#690730
1E
1A
#690917
1F
#700000
0!
1$
02
15
#700670
1G
#700836
0E
0A
#701009
0F
#710000
1!
12
#710730
1E
1A
#710917
1F
#720000
0!
0$
0#
02
05
04
#720746
0I
#720776
0G
#720836
0E
0A
#721009
0F
#730000
1!
12
#730730
1E
1A
#730917
1F
#740000
0!
1$
02
15
#740670
1G
#740836
0E
0A
#741009
0F
#750000
1!
12
#750730
1E
1A
#750917
1F
#760000
0!
0$
1#
02
05
14
#760640
1I
#760776
0G
#760836
0E
0A
#761009
0F
#770000
1!
12
#770730
1E
1A
#770917
1F
#780000
0!
1$
02
15
#780670
1G
#780836
0E
0A
#781009
0F
#790000
1!
12
#790730
1E
1A
#790917
1F
#800000
0!
0$
0#
02
05
04
#800746
0I
#800776
0G
#800836
0E
0A
#801009
0F
#810000
1!
12
#810730
1E
1A
#810917
1F
#820000
0!
1$
02
15
#820670
1G
#820836
0E
0A
#821009
0F
#830000
1!
12
#830730
1E
1A
#830917
1F
#840000
0!
0$
1#
02
05
14
#840640
1I
#840776
0G
#840836
0E
0A
#841009
0F
#850000
1!
12
#850730
1E
1A
#850917
1F
#860000
0!
1$
02
15
#860670
1G
#860836
0E
0A
#861009
0F
#870000
1!
12
#870730
1E
1A
#870917
1F
#880000
0!
0$
0#
02
05
04
#880746
0I
#880776
0G
#880836
0E
0A
#881009
0F
#890000
1!
12
#890730
1E
1A
#890917
1F
#900000
0!
1$
02
15
#900670
1G
#900836
0E
0A
#901009
0F
#910000
1!
12
#910730
1E
1A
#910917
1F
#920000
0!
0$
1#
02
05
14
#920640
1I
#920776
0G
#920836
0E
0A
#921009
0F
#930000
1!
12
#930730
1E
1A
#930917
1F
#940000
0!
1$
02
15
#940670
1G
#940836
0E
0A
#941009
0F
#950000
1!
12
#950730
1E
1A
#950917
1F
#960000
0!
0$
0#
02
05
04
#960746
0I
#960776
0G
#960836
0E
0A
#961009
0F
#970000
1!
12
#970730
1E
1A
#970917
1F
#980000
0!
1$
02
15
#980670
1G
#980836
0E
0A
#981009
0F
#990000
1!
12
#990730
1E
1A
#990917
1F
