01_projeto/bKuP/01_seletor/simulation/qsim/SELETOR.msim.vcd
$comment
	File created using the following command:
		vcd file SELETOR.msim.vcd -direction
$end
$date
	Mon Mar 20 10:57:18 2017
$end
$version
	ModelSim Version 10.5b
$end
$timescale
	1ps
$end

$scope module seletor_vhd_vec_tst $end
$var wire 1 ! BOTAO $end
$var wire 1 " SAIDA [2] $end
$var wire 1 # SAIDA [1] $end
$var wire 1 $ SAIDA [0] $end

$scope module i1 $end
$var wire 1 % gnd $end
$var wire 1 & vcc $end
$var wire 1 ' unknown $end
$var wire 1 ( devoe $end
$var wire 1 ) devclrn $end
$var wire 1 * devpor $end
$var wire 1 + ww_devoe $end
$var wire 1 , ww_devclrn $end
$var wire 1 - ww_devpor $end
$var wire 1 . ww_BOTAO $end
$var wire 1 / ww_SAIDA [2] $end
$var wire 1 0 ww_SAIDA [1] $end
$var wire 1 1 ww_SAIDA [0] $end
$var wire 1 2 \BOTAO~inputclkctrl_INCLK_bus\ [3] $end
$var wire 1 3 \BOTAO~inputclkctrl_INCLK_bus\ [2] $end
$var wire 1 4 \BOTAO~inputclkctrl_INCLK_bus\ [1] $end
$var wire 1 5 \BOTAO~inputclkctrl_INCLK_bus\ [0] $end
$var wire 1 6 \SAIDA[0]~output_o\ $end
$var wire 1 7 \SAIDA[1]~output_o\ $end
$var wire 1 8 \SAIDA[2]~output_o\ $end
$var wire 1 9 \BOTAO~input_o\ $end
$var wire 1 : \BOTAO~inputclkctrl_outclk\ $end
$var wire 1 ; \ESTADO.CASO_02~0_combout\ $end
$var wire 1 < \ESTADO.CASO_02~q\ $end
$var wire 1 = \ESTADO.CASO_03~feeder_combout\ $end
$var wire 1 > \ESTADO.CASO_03~q\ $end
$var wire 1 ? \ESTADO.CASO_01~0_combout\ $end
$var wire 1 @ \ESTADO.CASO_01~q\ $end
$var wire 1 A \ALT_INV_ESTADO.CASO_01~q\ $end
$upscope $end
$upscope $end
$enddefinitions $end
#0
$dumpvars
0!
0%
1&
x'
1(
1)
1*
1+
1,
1-
0.
06
07
08
x9
x:
x;
0<
x=
0>
x?
0@
1A
0/
00
01
12
13
14
x5
0"
0#
0$
$end
#493
0=
#506
1?
#507
1;
#836
09
05
#1009
0:
#3355
16
11
1$
#100000
1!
1.
#100730
19
15
#100917
1:
#103315
1@
1<
0A
#103734
0;
#103751
1=
#106654
17
10
1#
#106660
06
01
0$
#200000
0!
0.
#200836
09
05
#201009
0:
#300000
1!
1.
#300730
19
15
#300917
1:
#303315
1>
0<
#303733
0?
#303808
0=
#306664
07
00
0#
#306683
18
1/
1"
#400000
0!
0.
#400836
09
05
#401009
0:
#500000
1!
1.
#500730
19
15
#500917
1:
#503315
0@
0>
1A
#503821
1?
#503822
1;
#506670
16
11
1$
#506695
08
0/
0"
#600000
0!
0.
#600836
09
05
#601009
0:
#700000
1!
1.
#700730
19
15
#700917
1:
#703315
1@
1<
0A
#703734
0;
#703751
1=
#706654
17
10
1#
#706660
06
01
0$
#800000
0!
0.
#800836
09
05
#801009
0:
#900000
1!
1.
#900730
19
15
#900917
1:
#903315
1>
0<
#903733
0?
#903808
0=
#906664
07
00
0#
#906683
18
1/
1"
